{
    "name": "root",
    "folders":[
        {
            "name": "js",
            "folders": [
                {
                    "name": "jquery",
                    "folders": [
                        {
                            "name":"min",
                            "folders":[],
                            "files":[]
                        }
                    ],
                    "files": [
                        {
                            "name": "jquery-1.10.0.js"
                        }
                    ]
                }
            ],
            "files": [
                {
                    "name": "default.js",
                    "type": "js"
                }
            ]
        },
        {
            "name": "img",
            "folders": [],
            "files": [
                {
                    "name": "logo.png",
                    "location": "<location to file to copy>"
                }
            ]
        },
        {
            "name": "css",
            "folders": [],
            "files": [
                {
                    "name": "default.css"
                }
            ]
        }
    ],
    "files":[
        {
            "name": ".gitignore"
        },
        {
            "name": "index.html"
        }
    ]
}